{
"VERSION_TAG":"branching_dryrun_renhao_v2",
"PLATFORM":"twitter",
"ACTION_TYPE":"retweet",
"DOMAIN":"cve",
"SCENARIO":1,
"NO_TRIALS":10,
"INPUT_SEEDS_FILE_PATH":"/data/Anonymization/recur-cascades/JUNE_S1/input/cve/dry_run_simulation_cve_seed_tweet_0614.json"
}
